{
  "version": "3.3.0",
  "language": {
    "detected": "en"
  },
  "paragraphs": [
    {
      "id": "p2",
      "type": "BODY",
      "text": "Their petition is being considered by a judge.",
      "sentences": [
        {
          "id": "s0",
          "tokens": [
            {
              "id": "w0",
              "off": 0,
              "text": "Their",
              "parId": "w1",
              "fnc": "nmod:poss",
              "feats": {
                "negated": "false"
              },
              "dLemma": "they",
              "mTag": "PRP$"
            },
            {
              "id": "w1",
              "off": 6,
              "text": "petition",
              "parId": "w4",
              "fnc": "nsubj:pass",
              "feats": {
                "negated": "false"
              },
              "dLemma": "petition",
              "mTag": "NN"
            },
            {
              "id": "w2",
              "off": 15,
              "text": "is",
              "parId": "w4",
              "fnc": "aux",
              "feats": {
                "negated": "false"
              },
              "dLemma": "be",
              "mTag": "VBZ"
            },
            {
              "id": "w3",
              "off": 18,
              "text": "being",
              "parId": "w4",
              "fnc": "aux:pass",
              "feats": {
                "negated": "false"
              },
              "dLemma": "be",
              "mTag": "VBG"
            },
            {
              "id": "w4",
              "off": 24,
              "text": "considered",
              "fnc": "root",
              "feats": {
                "negated": "false"
              },
              "dLemma": "consider",
              "mTag": "VBN"
            },
            {
              "id": "w5",
              "off": 35,
              "text": "by",
              "parId": "w7",
              "fnc": "case",
              "feats": {
                "negated": "false"
              },
              "dLemma": "by",
              "mTag": "IN"
            },
            {
              "id": "w6",
              "off": 38,
              "text": "a",
              "parId": "w7",
              "fnc": "det",
              "feats": {
                "negated": "false"
              },
              "dLemma": "a",
              "mTag": "DT"
            },
            {
              "id": "w7",
              "off": 40,
              "text": "judge",
              "parId": "w4",
              "fnc": "obl",
              "feats": {
                "negated": "false"
              },
              "dLemma": "judge",
              "mTag": "NN"
            },
            {
              "id": "w8",
              "off": 45,
              "text": ".",
              "parId": "w4",
              "fnc": "punct",
              "feats": {
                "negated": "false"
              },
              "dLemma": ".",
              "mTag": "."
            }
          ]
        }
      ]
    }
  ],
  "usedChars": 100
}
