{
   "docSentiment": {
      "label": "positive",
      "mean": 0.1,
      "negative": 0.0,
      "positive": 0.1
   },
   "id": "1",
   "itemSentiments": {},
   "language": {
      "detected": "en"
   },
   "usedChars": 111,
   "version": "3.3.0"
}
