{
   "docSentiment": {
      "label": "positive",
      "mean": 0.1,
      "negative": 0.0,
      "positive": 0.1
   },
   "entities": [
      {
         "id": "e0",
         "stdForm": "Angela Merkel",
         "type": "person"
      },
      {
         "id": "e1",
         "stdForm": "New Orleans",
         "type": "location"
      },
      {
         "id": "e2",
         "stdForm": "Germany",
         "type": "location"
      }
   ],
   "id": "1",
   "itemSentiments": {
      "e0": {
         "label": "neutral",
         "mean": 0.0,
         "negative": 0.0,
         "positive": 0.0
      },
      "e1": {
         "label": "neutral",
         "mean": 0.0,
         "negative": 0.0,
         "positive": 0.0
      },
      "e2": {
         "label": "neutral",
         "mean": 0.0,
         "negative": 0.0,
         "positive": 0.0
      }
   },
   "language": {
      "detected": "en"
   },
   "usedChars": 111,
   "version": "3.3.0"
}
