{
   "docSentiment": {
      "label": "positive",
      "mean": 0.1,
      "negative": 0.0,
      "positive": 0.1
   },
   "entities": [
      {
         "id": "e0",
         "stdForm": "Angela Merkel",
         "type": "person"
      },
      {
         "id": "e1",
         "stdForm": "New Orleans",
         "type": "location"
      },
      {
         "id": "e2",
         "stdForm": "Germany",
         "type": "location"
      }
   ],
   "id": "1",
   "itemSentiments": {
      "e0": {
         "label": "neutral",
         "mean": 0.0,
         "negative": 0.0,
         "positive": 0.0
      },
      "e1": {
         "label": "neutral",
         "mean": 0.0,
         "negative": 0.0,
         "positive": 0.0
      },
      "e2": {
         "label": "neutral",
         "mean": 0.0,
         "negative": 0.0,
         "positive": 0.0
      },
      "r0": {
         "label": "neutral",
         "mean": 0.0,
         "negative": 0.0,
         "positive": 0.0
      },
      "r1": {
         "label": "neutral",
         "mean": 0.0,
         "negative": 0.0,
         "positive": 0.0
      }
   },
   "language": {
      "detected": "en"
   },
   "relations": [
      {
         "args": [
            {
               "entityId": "e0",
               "name": "Angela Merkel",
               "type": "SUBJECT"
            },
            {
               "entityId": "e2",
               "name": "Germany",
               "type": "OBJECT"
            }
         ],
         "feats": {
            "modality": "",
            "negated": "false"
         },
         "id": "r0",
         "name": "leave",
         "textRepr": "leave(Angela Merkel,Germany)",
         "type": "VERB"
      },
      {
         "args": [
            {
               "name": "jazz",
               "type": "OBJECT"
            }
         ],
         "feats": {
            "modality": "",
            "negated": "false"
         },
         "id": "r1",
         "name": "learn",
         "textRepr": "learn(jazz)",
         "type": "VERB"
      }
   ],
   "usedChars": 111,
   "version": "3.3.0"
}
