{
   "entities": [
      {
         "id": "e0",
         "mentions": [
            {
               "id": "m0",
               "mwl": "Angela Merkel",
               "text": "Angela Merkel",
               "tokenIds": [
                  "w0",
                  "w1"
               ]
            },
            {
               "id": "m1",
               "mwl": "Angela Merkel",
               "text": "Angela Merkel",
               "tokenIds": [
                  "w5",
                  "w6"
               ]
            }
         ],
         "stdForm": "Angela Merkel",
         "type": "person"
      },
      {
         "id": "e1",
         "mentions": [
            {
               "id": "m2",
               "mwl": "New Orleans",
               "text": "New Orleans",
               "tokenIds": [
                  "w3",
                  "w4"
               ]
            },
            {
               "id": "m3",
               "mwl": "New Orleans",
               "text": "New Orleans",
               "tokenIds": [
                  "w13",
                  "w14"
               ]
            }
         ],
         "stdForm": "New Orleans",
         "type": "location"
      },
      {
         "id": "e2",
         "mentions": [
            {
               "id": "m4",
               "mwl": "Germany",
               "text": "Germany",
               "tokenIds": [
                  "w8"
               ]
            }
         ],
         "stdForm": "Germany",
         "type": "location"
      }
   ],
   "id": "1",
   "language": {
      "detected": "en"
   },
   "paragraphs": [
      {
         "id": "p0",
         "sentences": [
            {
               "id": "s0",
               "tokens": [
                  {
                     "id": "w0",
                     "off": 0,
                     "text": "Angela"
                  },
                  {
                     "id": "w1",
                     "off": 7,
                     "text": "Merkel"
                  },
                  {
                     "id": "w2",
                     "off": 14,
                     "text": "in"
                  },
                  {
                     "id": "w3",
                     "off": 17,
                     "text": "New"
                  },
                  {
                     "id": "w4",
                     "off": 21,
                     "text": "Orleans"
                  }
               ]
            }
         ],
         "text": "Angela Merkel in New Orleans",
         "type": "TITLE"
      },
      {
         "id": "p2",
         "sentences": [
            {
               "id": "s1",
               "tokens": [
                  {
                     "id": "w5",
                     "off": 0,
                     "text": "Angela"
                  },
                  {
                     "id": "w6",
                     "off": 7,
                     "text": "Merkel"
                  },
                  {
                     "id": "w7",
                     "off": 14,
                     "text": "left"
                  },
                  {
                     "id": "w8",
                     "off": 19,
                     "text": "Germany"
                  },
                  {
                     "id": "w9",
                     "off": 26,
                     "text": "."
                  }
               ]
            },
            {
               "id": "s2",
               "tokens": [
                  {
                     "id": "w10",
                     "off": 28,
                     "text": "She"
                  },
                  {
                     "id": "w11",
                     "off": 32,
                     "text": "moved"
                  },
                  {
                     "id": "w12",
                     "off": 38,
                     "text": "to"
                  },
                  {
                     "id": "w13",
                     "off": 41,
                     "text": "New"
                  },
                  {
                     "id": "w14",
                     "off": 45,
                     "text": "Orleans"
                  },
                  {
                     "id": "w15",
                     "off": 53,
                     "text": "to"
                  },
                  {
                     "id": "w16",
                     "off": 56,
                     "text": "learn"
                  },
                  {
                     "id": "w17",
                     "off": 62,
                     "text": "jazz"
                  },
                  {
                     "id": "w18",
                     "off": 66,
                     "text": "."
                  }
               ]
            },
            {
               "id": "s3",
               "tokens": [
                  {
                     "id": "w19",
                     "off": 68,
                     "text": "That"
                  },
                  {
                     "id": "w20",
                     "off": 72,
                     "text": "'s"
                  },
                  {
                     "id": "w21",
                     "off": 75,
                     "text": "amazing"
                  },
                  {
                     "id": "w22",
                     "off": 82,
                     "text": "."
                  }
               ]
            }
         ],
         "text": "Angela Merkel left Germany. She moved to New Orleans to learn jazz. That's amazing.",
         "type": "BODY"
      }
   ],
   "relations": [
      {
         "args": [
            {
               "entityId": "e0",
               "name": "Angela Merkel",
               "type": "SUBJECT"
            },
            {
               "entityId": "e2",
               "name": "Germany",
               "type": "OBJECT"
            }
         ],
         "feats": {
            "modality": "",
            "negated": "false"
         },
         "id": "r0",
         "name": "leave",
         "support": [
            {
               "tokenIds": [
                  "w7"
               ]
            }
         ],
         "textRepr": "leave(Angela Merkel,Germany)",
         "type": "VERB"
      },
      {
         "args": [
            {
               "name": "jazz",
               "type": "OBJECT"
            }
         ],
         "feats": {
            "modality": "",
            "negated": "false"
         },
         "id": "r1",
         "name": "learn",
         "support": [
            {
               "tokenIds": [
                  "w15",
                  "w16"
               ]
            }
         ],
         "textRepr": "learn(jazz)",
         "type": "VERB"
      }
   ],
   "tags": [
      {
         "id": "t0",
         "mentions": [
            {
               "id": "m5",
               "tokenIds": [
                  "w0",
                  "w1"
               ]
            },
            {
               "id": "m6",
               "tokenIds": [
                  "w5",
                  "w6"
               ]
            }
         ],
         "relevance": 6.0,
         "stdForm": "Angela Merkel",
         "type": "ENTITIES"
      },
      {
         "id": "t1",
         "mentions": [
            {
               "id": "m7",
               "tokenIds": [
                  "w3",
                  "w4"
               ]
            },
            {
               "id": "m8",
               "tokenIds": [
                  "w13",
                  "w14"
               ]
            }
         ],
         "relevance": 6.0,
         "stdForm": "New Orleans",
         "type": "KEYWORDS"
      },
      {
         "id": "t2",
         "mentions": [
            {
               "id": "m9",
               "tokenIds": [
                  "w4"
               ]
            },
            {
               "id": "m10",
               "tokenIds": [
                  "w14"
               ]
            }
         ],
         "relevance": 5.971,
         "stdForm": "Orleans",
         "type": "KEYWORDS"
      },
      {
         "id": "t3",
         "mentions": [
            {
               "id": "m11",
               "tokenIds": [
                  "w3"
               ]
            },
            {
               "id": "m12",
               "tokenIds": [
                  "w13"
               ]
            }
         ],
         "relevance": 4.729,
         "stdForm": "New",
         "type": "KEYWORDS"
      },
      {
         "id": "t4",
         "mentions": [
            {
               "id": "m13",
               "tokenIds": [
                  "w8"
               ]
            }
         ],
         "relevance": 0.426,
         "stdForm": "Germany",
         "type": "KEYWORDS"
      }
   ],
   "usedChars": 111,
   "version": "3.3.0"
}
