{
   "docSentiment": {
      "label": "positive",
      "mean": 0.1,
      "negative": 0.0,
      "positive": 0.1
   },
   "entities": [
      {
         "id": "e0",
         "mentions": [
            {
               "id": "m0",
               "mwl": "Angela Merkel",
               "text": "Angela Merkel",
               "tokenIds": [
                  "w0",
                  "w1"
               ]
            },
            {
               "id": "m1",
               "mwl": "Angela Merkel",
               "text": "Angela Merkel",
               "tokenIds": [
                  "w5",
                  "w6"
               ]
            }
         ],
         "stdForm": "Angela Merkel",
         "type": "person"
      },
      {
         "id": "e1",
         "mentions": [
            {
               "id": "m2",
               "mwl": "New Orleans",
               "text": "New Orleans",
               "tokenIds": [
                  "w3",
                  "w4"
               ]
            },
            {
               "id": "m3",
               "mwl": "New Orleans",
               "text": "New Orleans",
               "tokenIds": [
                  "w13",
                  "w14"
               ]
            }
         ],
         "stdForm": "New Orleans",
         "type": "location"
      },
      {
         "id": "e2",
         "mentions": [
            {
               "id": "m4",
               "mwl": "Germany",
               "text": "Germany",
               "tokenIds": [
                  "w8"
               ]
            }
         ],
         "stdForm": "Germany",
         "type": "location"
      }
   ],
   "id": "1",
   "itemSentiments": {
      "e0": {
         "label": "neutral",
         "mean": 0.0,
         "negative": 0.0,
         "positive": 0.0
      },
      "e1": {
         "label": "neutral",
         "mean": 0.0,
         "negative": 0.0,
         "positive": 0.0
      },
      "e2": {
         "label": "neutral",
         "mean": 0.0,
         "negative": 0.0,
         "positive": 0.0
      }
   },
   "language": {
      "detected": "en"
   },
   "paragraphs": [
      {
         "id": "p0",
         "sentences": [
            {
               "id": "s0",
               "tokens": [
                  {
                     "id": "w0",
                     "off": 0,
                     "text": "Angela"
                  },
                  {
                     "id": "w1",
                     "off": 7,
                     "text": "Merkel"
                  },
                  {
                     "id": "w2",
                     "off": 14,
                     "text": "in"
                  },
                  {
                     "id": "w3",
                     "off": 17,
                     "text": "New"
                  },
                  {
                     "id": "w4",
                     "off": 21,
                     "text": "Orleans"
                  }
               ]
            }
         ],
         "text": "Angela Merkel in New Orleans",
         "type": "TITLE"
      },
      {
         "id": "p2",
         "sentences": [
            {
               "id": "s1",
               "tokens": [
                  {
                     "id": "w5",
                     "off": 0,
                     "text": "Angela"
                  },
                  {
                     "id": "w6",
                     "off": 7,
                     "text": "Merkel"
                  },
                  {
                     "id": "w7",
                     "off": 14,
                     "text": "left"
                  },
                  {
                     "id": "w8",
                     "off": 19,
                     "text": "Germany"
                  },
                  {
                     "id": "w9",
                     "off": 26,
                     "text": "."
                  }
               ]
            },
            {
               "id": "s2",
               "tokens": [
                  {
                     "id": "w10",
                     "off": 28,
                     "text": "She"
                  },
                  {
                     "id": "w11",
                     "off": 32,
                     "text": "moved"
                  },
                  {
                     "id": "w12",
                     "off": 38,
                     "text": "to"
                  },
                  {
                     "id": "w13",
                     "off": 41,
                     "text": "New"
                  },
                  {
                     "id": "w14",
                     "off": 45,
                     "text": "Orleans"
                  },
                  {
                     "id": "w15",
                     "off": 53,
                     "text": "to"
                  },
                  {
                     "id": "w16",
                     "off": 56,
                     "text": "learn"
                  },
                  {
                     "id": "w17",
                     "off": 62,
                     "text": "jazz"
                  },
                  {
                     "id": "w18",
                     "off": 66,
                     "text": "."
                  }
               ]
            },
            {
               "id": "s3",
               "tokens": [
                  {
                     "id": "w19",
                     "off": 68,
                     "text": "That"
                  },
                  {
                     "id": "w20",
                     "off": 72,
                     "text": "'s"
                  },
                  {
                     "id": "w21",
                     "off": 75,
                     "text": "amazing"
                  },
                  {
                     "id": "w22",
                     "off": 82,
                     "text": "."
                  }
               ]
            }
         ],
         "text": "Angela Merkel left Germany. She moved to New Orleans to learn jazz. That's amazing.",
         "type": "BODY"
      }
   ],
   "usedChars": 111,
   "version": "3.3.0"
}
