{
   "docSentiment": {
      "label": "positive",
      "mean": 0.1,
      "negative": 0.0,
      "positive": 0.1
   },
   "id": "1",
   "itemSentiments": {},
   "language": {
      "detected": "en"
   },
   "tags": [
      {
         "id": "t0",
         "relevance": 6.0,
         "stdForm": "Angela Merkel",
         "type": "ENTITIES"
      },
      {
         "id": "t1",
         "relevance": 6.0,
         "stdForm": "New Orleans",
         "type": "KEYWORDS"
      },
      {
         "id": "t2",
         "relevance": 5.971,
         "stdForm": "Orleans",
         "type": "KEYWORDS"
      },
      {
         "id": "t3",
         "relevance": 4.729,
         "stdForm": "New",
         "type": "KEYWORDS"
      },
      {
         "id": "t4",
         "relevance": 0.426,
         "stdForm": "Germany",
         "type": "KEYWORDS"
      }
   ],
   "usedChars": 111,
   "version": "3.3.0"
}
