{
   "language": {
      "detected": "cs"
   },
   "paragraphs": [
      {
         "corrText": "V 🐦🎾 obchodě chybí nové alba 🤣.",
         "id": "p2",
         "sentences": [
            {
               "id": "s0",
               "tokens": [
                  {
                     "corrOff": 0,
                     "corrText": "V",
                     "id": "w0",
                     "off": 0,
                     "text": "V"
                  },
                  {
                     "corrOff": 2,
                     "corrText": "🐦🎾",
                     "id": "w1",
                     "off": 2,
                     "text": "🐦🎾"
                  },
                  {
                     "corrOff": 7,
                     "corrText": "obchodě",
                     "id": "w2",
                     "off": 7,
                     "text": "obchodě"
                  },
                  {
                     "corrOff": 15,
                     "corrText": "chybí",
                     "id": "w3",
                     "off": 15,
                     "text": "chybý"
                  },
                  {
                     "corrOff": 21,
                     "corrText": "nové",
                     "id": "w4",
                     "off": 21,
                     "text": "nové"
                  },
                  {
                     "corrOff": 26,
                     "corrText": "alba",
                     "id": "w5",
                     "off": 26,
                     "text": "albumy"
                  },
                  {
                     "corrOff": 31,
                     "corrText": "🤣",
                     "id": "w6",
                     "off": 33,
                     "text": "🤣"
                  },
                  {
                     "corrOff": 33,
                     "corrText": ".",
                     "id": "w7",
                     "off": 35,
                     "text": "."
                  }
               ]
            }
         ],
         "text": "V 🐦🎾 obchodě chybý nové albumy 🤣.",
         "type": "BODY"
      }
   ],
   "usedChars": 100,
   "version": "3.1.1"
}
