{
  "title": "Angela Merkel in New Orleans",
  "text": "Angela Merkel left Germany. She move to New Orleans to learn jazz. That's amazing.",
  "analyses": ["entities", "sentiment"],
  "language": "en",
  "domain": "news",
  "textType": "clean",
  "diacritization": "yes",
  "returnMentions": true,
  "returnItemSentiment": true,
  "custom_key": ["custom value"]
}
